Homerwork 1
…
-   Had an arrival delay of two or more hours (\> 120 minutes)
-   Flew to Houston (IAH or HOU)
-   Were operated by United (`UA`), American (`AA`), or Delta (`DL`)
-   Departed in summer (July, August, and September)
-   Arrived more than two hours late, but didn't leave late
-   Were delayed by at least an hour, but made up over 30 minutes in flight

Code

# Had an arrival delay of two or more hours (> 120 minutes)
flights %>% 
  filter(arr_delay>=120)

# A tibble: 10,200 × 19
    year month   day dep_time sched_dep_time dep_delay arr_time sched_arr_time
   <int> <int> <int>    <int>          <int>     <dbl>    <int>          <int>
 1  2013     1     1      811            630       101     1047            830
 2  2013     1     1      848           1835       853     1001           1950
 3  2013     1     1      957            733       144     1056            853
 4  2013     1     1     1114            900       134     1447           1222
 5  2013     1     1     1505           1310       115     1638           1431
 6  2013     1     1     1525           1340       105     1831           1626
 7  2013     1     1     1549           1445        64     1912           1656
 8  2013     1     1     1558           1359       119     1718           1515
 9  2013     1     1     1732           1630        62     2028           1825
10  2013     1     1     1803           1620       103     2008           1750
# ℹ 10,190 more rows
# ℹ 11 more variables: arr_delay <dbl>, carrier <chr>, flight <int>,
#   tailnum <chr>, origin <chr>, dest <chr>, air_time <dbl>, distance <dbl>,
#   hour <dbl>, minute <dbl>, time_hour <dttm>

Code

# Flew to Houston (IAH or HOU)
flights %>% 
  filter(dest %in% c("IAH","HOU"))

# A tibble: 9,313 × 19
    year month   day dep_time sched_dep_time dep_delay arr_time sched_arr_time
   <int> <int> <int>    <int>          <int>     <dbl>    <int>          <int>
 1  2013     1     1      517            515         2      830            819
 2  2013     1     1      533            529         4      850            830
 3  2013     1     1      623            627        -4      933            932
 4  2013     1     1      728            732        -4     1041           1038
 5  2013     1     1      739            739         0     1104           1038
 6  2013     1     1      908            908         0     1228           1219
 7  2013     1     1     1028           1026         2     1350           1339
 8  2013     1     1     1044           1045        -1     1352           1351
 9  2013     1     1     1114            900       134     1447           1222
10  2013     1     1     1205           1200         5     1503           1505
# ℹ 9,303 more rows
# ℹ 11 more variables: arr_delay <dbl>, carrier <chr>, flight <int>,
#   tailnum <chr>, origin <chr>, dest <chr>, air_time <dbl>, distance <dbl>,
#   hour <dbl>, minute <dbl>, time_hour <dttm>

Code

# Were operated by United (`UA`), American (`AA`), or Delta (`DL`)
  flights %>% 
  group_by(carrier %in% c("UA","AA","DL"))

# A tibble: 336,776 × 20
# Groups:   carrier %in% c("UA", "AA", "DL") [2]
    year month   day dep_time sched_dep_time dep_delay arr_time sched_arr_time
   <int> <int> <int>    <int>          <int>     <dbl>    <int>          <int>
 1  2013     1     1      517            515         2      830            819
 2  2013     1     1      533            529         4      850            830
 3  2013     1     1      542            540         2      923            850
 4  2013     1     1      544            545        -1     1004           1022
 5  2013     1     1      554            600        -6      812            837
 6  2013     1     1      554            558        -4      740            728
 7  2013     1     1      555            600        -5      913            854
 8  2013     1     1      557            600        -3      709            723
 9  2013     1     1      557            600        -3      838            846
10  2013     1     1      558            600        -2      753            745
# ℹ 336,766 more rows
# ℹ 12 more variables: arr_delay <dbl>, carrier <chr>, flight <int>,
#   tailnum <chr>, origin <chr>, dest <chr>, air_time <dbl>, distance <dbl>,
#   hour <dbl>, minute <dbl>, time_hour <dttm>,
#   `carrier %in% c("UA", "AA", "DL")` <lgl>

Code

# Departed in summer (July, August, and September)
  flights %>% 
  filter(month %in% c(7,8,9))

# A tibble: 86,326 × 19
    year month   day dep_time sched_dep_time dep_delay arr_time sched_arr_time
   <int> <int> <int>    <int>          <int>     <dbl>    <int>          <int>
 1  2013     7     1        1           2029       212      236           2359
 2  2013     7     1        2           2359         3      344            344
 3  2013     7     1       29           2245       104      151              1
 4  2013     7     1       43           2130       193      322             14
 5  2013     7     1       44           2150       174      300            100
 6  2013     7     1       46           2051       235      304           2358
 7  2013     7     1       48           2001       287      308           2305
 8  2013     7     1       58           2155       183      335             43
 9  2013     7     1      100           2146       194      327             30
10  2013     7     1      100           2245       135      337            135
# ℹ 86,316 more rows
# ℹ 11 more variables: arr_delay <dbl>, carrier <chr>, flight <int>,
#   tailnum <chr>, origin <chr>, dest <chr>, air_time <dbl>, distance <dbl>,
#   hour <dbl>, minute <dbl>, time_hour <dttm>

Code

# Arrived more than two hours late, but didn't leave late
flights %>% 
  filter(arr_delay>120) %>% 
filter(dep_delay<0)

# A tibble: 26 × 19
    year month   day dep_time sched_dep_time dep_delay arr_time sched_arr_time
   <int> <int> <int>    <int>          <int>     <dbl>    <int>          <int>
 1  2013     1    27     1419           1420        -1     1754           1550
 2  2013    10     7     1357           1359        -2     1858           1654
 3  2013    10    16      657            700        -3     1258           1056
 4  2013    11     1      658            700        -2     1329           1015
 5  2013     3    18     1844           1847        -3       39           2219
 6  2013     4    17     1635           1640        -5     2049           1845
 7  2013     4    18      558            600        -2     1149            850
 8  2013     4    18      655            700        -5     1213            950
 9  2013     5    22     1827           1830        -3     2217           2010
10  2013     6     5     1604           1615       -11     2041           1840
# ℹ 16 more rows
# ℹ 11 more variables: arr_delay <dbl>, carrier <chr>, flight <int>,
#   tailnum <chr>, origin <chr>, dest <chr>, air_time <dbl>, distance <dbl>,
#   hour <dbl>, minute <dbl>, time_hour <dttm>

Code

# Were delayed by at least an hour, but made up over 30 minutes in flight
flights %>% 
  filter(dep_delay>=60) %>%
  filter(dep_delay-arr_delay> 30)

# A tibble: 1,844 × 19
    year month   day dep_time sched_dep_time dep_delay arr_time sched_arr_time
   <int> <int> <int>    <int>          <int>     <dbl>    <int>          <int>
 1  2013     1     1     2205           1720       285       46           2040
 2  2013     1     1     2326           2130       116      131             18
 3  2013     1     3     1503           1221       162     1803           1555
 4  2013     1     3     1839           1700        99     2056           1950
 5  2013     1     3     1850           1745        65     2148           2120
 6  2013     1     3     1941           1759       102     2246           2139
 7  2013     1     3     1950           1845        65     2228           2227
 8  2013     1     3     2015           1915        60     2135           2111
 9  2013     1     3     2257           2000       177       45           2224
10  2013     1     4     1917           1700       137     2135           1950
# ℹ 1,834 more rows
# ℹ 11 more variables: arr_delay <dbl>, carrier <chr>, flight <int>,
#   tailnum <chr>, origin <chr>, dest <chr>, air_time <dbl>, distance <dbl>,
#   hour <dbl>, minute <dbl>, time_hour <dttm>
…
Problem 3: What plane (specified by the tailnum variable) traveled the most times from New York City airports in 2013? Please left_join() the resulting table with the table planes (also included in the nycflights13 package).

For the plane with the greatest number of flights and that had more than 50 seats, please create a table where it flew to during 2013.

Code

flights %>% 
  filter(!is.na(dep_time)) %>%
  left_join(planes, by = "tailnum") %>% 
  group_by(tailnum) %>% 
  summarise(count_nyc_takeoff = n()) %>% 
  arrange(desc(count_nyc_takeoff))

# A tibble: 4,037 × 2
   tailnum count_nyc_takeoff
   <chr>               <int>
 1 N725MQ                546
 2 N722MQ                487
 3 N723MQ                480
 4 N711MQ                467
 5 N713MQ                455
 6 N258JB                422
 7 N353JB                403
 8 N298JB                402
 9 N351JB                392
10 N328AA                389
# ℹ 4,027 more rows

Code

#Plane N725MQ flew the most out of NYC in 2013.

N725MQ <- flights %>%
  filter(tailnum=="N725MQ") %>% 
   select(origin,dest,time_hour)

#Print the table of N725MQ's destinations from NYC.

print(N725MQ)

# A tibble: 575 × 3
   origin dest  time_hour          
   <chr>  <chr> <dttm>             
 1 LGA    RDU   2013-01-01 08:00:00
 2 LGA    DTW   2013-01-01 13:00:00
 3 LGA    CRW   2013-01-01 18:00:00
 4 LGA    RDU   2013-01-02 12:00:00
 5 LGA    BNA   2013-01-02 18:00:00
 6 LGA    CLE   2013-01-03 11:00:00
 7 LGA    DTW   2013-01-03 16:00:00
 8 LGA    DTW   2013-01-04 06:00:00
 9 LGA    CMH   2013-01-04 11:00:00
10 LGA    RDU   2013-01-04 16:00:00
# ℹ 565 more rows
…
#Summarising plane manufacturers.
planes_manufacturers <-planes %>%
add_count(manufacturer) %>% 
  group_by(manufacturer) %>%
  summarise(models = mean(n))

#Identifying top manufacturers.
top_manu <-planes_manufacturers %>% 
  arrange(desc(models)) %>%
  top_n(models,n=5)

print(planes_manufacturers)

# A tibble: 35 × 2
   manufacturer           models
   <chr>                   <dbl>
 1 AGUSTA SPA                  1
 2 AIRBUS                    336
 3 AIRBUS INDUSTRIE          400
 4 AMERICAN AIRCRAFT INC       2
 5 AVIAT AIRCRAFT INC          1
 6 AVIONS MARCEL DASSAULT      1
 7 BARKER JACK L               1
 8 BEECH                       2
 9 BELL                        2
10 BOEING                   1630
# ℹ 25 more rows
…
#median arrival delay by month
med_arr_delay_mon <- flights %>% 
  filter(!is.na(dep_time)) %>% 
  group_by(dest, month) %>% 
  summarise(med_arr_delay = median(arr_delay, na.rm=TRUE))

`summarise()` has grouped output by 'dest'. You can override using the
`.groups` argument.

Code

print(med_arr_delay_mon)

# A tibble: 1,112 × 3
# Groups:   dest [104]
   dest  month med_arr_delay
   <chr> <int>         <dbl>
 1 ABQ       4          14  
 2 ABQ       5         -19  
 3 ABQ       6          -2.5
 4 ABQ       7          -6  
 5 ABQ       8         -14  
 6 ABQ       9         -16  
 7 ABQ      10         -10  
 8 ABQ      11          -6  
 9 ABQ      12          27  
10 ACK       5          -8  
# ℹ 1,102 more rows
…
#most number of love interests
love_interests <- age_gaps %>% 
  select(movie_name,couple_number) %>% 
arrange(desc(couple_number))

#actors/actresses with most number of love interests
most_appearances1 <- age_gaps %>% 
  count(actor_1_name) %>% 
  arrange(desc(n))

print(most_appearances1)

# A tibble: 567 × 2
   actor_1_name          n
   <chr>             <int>
 1 Keanu Reeves         24
 2 Adam Sandler         18
 3 Roger Moore          17
 4 Sean Connery         15
 5 Harrison Ford        13
 6 Johnny Depp          12
 7 Pierce Brosnan       12
 8 Leonardo DiCaprio    11
 9 Richard Gere         10
10 Brad Pitt             9
# ℹ 557 more rows

Code

most_appearances2 <- age_gaps %>% 
  count(actor_2_name) %>% 
  arrange(desc(n))

print(most_appearances2)

# A tibble: 647 × 2
   actor_2_name           n
   <chr>              <int>
 1 Keira Knightley       13
 2 Scarlett Johansson    13
 3 Emma Stone            11
 4 Renee Zellweger       11
 5 Drew Barrymore         9
 6 Jennifer Lawrence      9
 7 Julia Roberts          9
 8 Amanda Seyfried        8
 9 Audrey Hepburn         8
10 Jennifer Aniston       8
# ℹ 637 more rows
…
